<svg xmlns="http://www.w3.org/2000/svg" xmlns:xlink="http://www.w3.org/1999/xlink" width="59" height="59" viewBox="0 0 59 59">
    <defs>
        <linearGradient id="c" x1="50%" x2="50%" y1="0%" y2="99.133%">
            <stop offset="0%" stop-color="#5BF0FF"/>
            <stop offset="100%" stop-color="#27B3E7"/>
        </linearGradient>
        <linearGradient id="e" x1="50%" x2="50%" y1="95.779%" y2="0%">
            <stop offset="0%" stop-color="#40D9E8" stop-opacity=".69"/>
            <stop offset="100%" stop-color="#1DA8DB"/>
        </linearGradient>
        <rect id="b" width="51" height="51" rx="5"/>
        <filter id="a" width="127.5%" height="127.5%" x="-13.7%" y="-9.8%" filterUnits="objectBoundingBox">
            <feOffset dy="2" in="SourceAlpha" result="shadowOffsetOuter1"/>
            <feGaussianBlur in="shadowOffsetOuter1" result="shadowBlurOuter1" stdDeviation="2"/>
            <feComposite in="shadowBlurOuter1" in2="SourceAlpha" operator="out" result="shadowBlurOuter1"/>
            <feColorMatrix in="shadowBlurOuter1" values="0 0 0 0 0 0 0 0 0 0 0 0 0 0 0 0 0 0 0.5 0"/>
        </filter>
        <filter id="d" width="123.5%" height="123.5%" x="-11.8%" y="-7.8%" filterUnits="objectBoundingBox">
            <feGaussianBlur in="SourceAlpha" result="shadowBlurInner1" stdDeviation="1"/>
            <feOffset dy="2" in="shadowBlurInner1" result="shadowOffsetInner1"/>
            <feComposite in="shadowOffsetInner1" in2="SourceAlpha" k2="-1" k3="1" operator="arithmetic" result="shadowInnerInner1"/>
            <feColorMatrix in="shadowInnerInner1" values="0 0 0 0 1 0 0 0 0 1 0 0 0 0 1 0 0 0 0.6 0"/>
        </filter>
        <path id="g" d="M24.364 29.35a1.8 1.8 0 0 1 1.363 1.747V38.2a1.8 1.8 0 0 1-1.8 1.8h-1.854a1.8 1.8 0 0 1-1.8-1.8v-7.103a1.8 1.8 0 0 1 1.363-1.746v-2.82C16.76 25.88 13 21.775 13 16.811 13 11.392 17.477 7 23 7s10 4.392 10 9.81c0 4.965-3.759 9.069-8.636 9.721v2.82zM23 23.947c4.017 0 7.273-3.195 7.273-7.135S27.017 9.676 23 9.676c-4.017 0-7.273 3.194-7.273 7.135 0 3.94 3.256 7.135 7.273 7.135z"/>
        <filter id="f" width="135%" height="121.2%" x="-17.5%" y="-7.6%" filterUnits="objectBoundingBox">
            <feOffset dy="1" in="SourceAlpha" result="shadowOffsetOuter1"/>
            <feGaussianBlur in="shadowOffsetOuter1" result="shadowBlurOuter1" stdDeviation="1"/>
            <feColorMatrix in="shadowBlurOuter1" values="0 0 0 0 0 0 0 0 0 0 0 0 0 0 0 0 0 0 0.5 0"/>
        </filter>
    </defs>
    <g fill="none" fill-rule="evenodd">
        <g transform="translate(4 2)">
            <use fill="#000" filter="url(#a)" xlink:href="#b"/>
            <use fill="url(#c)" xlink:href="#b"/>
            <use fill="#000" filter="url(#d)" xlink:href="#b"/>
            <rect width="50" height="50" x=".5" y=".5" stroke="url(#e)" rx="5"/>
        </g>
        <g transform="rotate(-45 32.536 17.55)">
            <use fill="#000" filter="url(#f)" xlink:href="#g"/>
            <use fill="#FFF" xlink:href="#g"/>
        </g>
    </g>
</svg>
