<svg xmlns="http://www.w3.org/2000/svg" xmlns:xlink="http://www.w3.org/1999/xlink" width="122" height="47" viewBox="0 0 122 47">
    <defs>
        <linearGradient id="a" x1="54.078%" x2="54.078%" y1="96.285%" y2="0%">
            <stop offset="0%" stop-color="#24BDEF"/>
            <stop offset="25.837%" stop-color="#10B3E7"/>
            <stop offset="64.732%" stop-color="#0DB0E5"/>
            <stop offset="100%" stop-color="#3CD6E8"/>
        </linearGradient>
        <rect id="b" width="120" height="45" rx="8"/>
        <filter id="c" width="102.9%" height="107.8%" x="-1.5%" y="-3.9%" filterUnits="objectBoundingBox">
            <feOffset dy="1.5" in="SourceAlpha" result="shadowOffsetInner1"/>
            <feComposite in="shadowOffsetInner1" in2="SourceAlpha" k2="-1" k3="1" operator="arithmetic" result="shadowInnerInner1"/>
            <feColorMatrix in="shadowInnerInner1" values="0 0 0 0 0.116129524 0 0 0 0 0.406584584 0 0 0 0 0.745110544 0 0 0 1 0"/>
        </filter>
        <path id="e" d="M69.478 22.694h1.257v-1.257h-1.257v1.257zm-2.044 1.87H52.479c-2.065 0-3.74 1.936-3.74 4.001v2.133h1.87v-2.133c0-1.032.836-2.22 1.87-2.22h14.955c1.033 0 2.044 1.188 2.044 2.22v2.133h1.87v-2.133c0-2.065-1.85-4.002-3.914-4.002zm-.994-1.87h1.17v-1.257h-1.17v1.257zm-10.398-5.433h7.916v-3.74h-7.916v3.74zm11.568-7.39H52.39v7.39h1.783v-5.52h11.654v5.52h1.783v-7.39zM52.39 36.218h15.22v-8.004H52.39v8.004zm17.088-2.044v2.044c0 1.032-1.01 1.782-2.044 1.782H52.479c-1.034 0-1.87-.75-1.87-1.782v-2.044A5.609 5.609 0 0 1 45 28.565v-5.608c0-3.097 2.424-5.696 5.52-5.696v-7.39C50.52 8.836 51.446 8 52.48 8h14.955c1.033 0 2.044.837 2.044 1.87v7.391c3.098 0 5.522 2.599 5.522 5.696v5.608c0 3.099-2.424 5.61-5.522 5.61z"/>
        <filter id="d" width="130%" height="130%" x="-15%" y="-15%" filterUnits="objectBoundingBox">
            <feOffset in="SourceAlpha" result="shadowOffsetOuter1"/>
            <feGaussianBlur in="shadowOffsetOuter1" result="shadowBlurOuter1" stdDeviation="1.5"/>
            <feColorMatrix in="shadowBlurOuter1" values="0 0 0 0 0 0 0 0 0 0 0 0 0 0 0 0 0 0 0.7 0"/>
        </filter>
    </defs>
    <g fill="none" fill-rule="evenodd">
        <g transform="translate(1 1)">
            <use fill="url(#a)" xlink:href="#b"/>
            <use fill="#000" filter="url(#c)" xlink:href="#b"/>
            <rect width="121" height="46" x="-.5" y="-.5" stroke="#FFF" stroke-opacity=".7" rx="8"/>
        </g>
        <g transform="translate(1 1)">
            <use fill="#000" filter="url(#d)" xlink:href="#e"/>
            <use fill="#FFF" xlink:href="#e"/>
        </g>
    </g>
</svg>
