<svg xmlns="http://www.w3.org/2000/svg" width="17" height="26" viewBox="0 0 17 26">
    <defs>
        <linearGradient id="a" x1="50%" x2="50%" y1="0%" y2="100%">
            <stop offset="0%" stop-color="#8AC3FC"/>
            <stop offset="100%" stop-color="#8AC3FC" stop-opacity="0"/>
        </linearGradient>
    </defs>
    <g fill="none" fill-rule="evenodd">
        <path fill="url(#a)" d="M8.5 0L0 9.486h4.584V20h7.832V9.486H17z"/>
        <path fill="#8AC3FC" d="M6.527 19h2.148v4.1c0 .407-.065.791-.193 1.152-.128.362-.33.678-.603.948-.274.271-.562.46-.862.57-.418.153-.92.23-1.506.23-.34 0-.709-.023-1.11-.07-.4-.047-.735-.14-1.004-.28a2.506 2.506 0 0 1-.739-.593 2.176 2.176 0 0 1-.459-.792C2.066 23.827 2 23.438 2 23.1V19h2.147v4.198c0 .376.105.669.316.88.211.21.503.317.876.317.371 0 .662-.104.873-.313.21-.207.315-.502.315-.884V19zm3.563 0h3.577c.78 0 1.363.183 1.751.55.388.365.582.887.582 1.563 0 .695-.211 1.237-.634 1.629-.423.391-1.068.587-1.936.587h-1.178v2.554H10.09V19zm2.162 2.934h.527c.415 0 .706-.071.874-.213a.685.685 0 0 0 .252-.547.761.761 0 0 0-.219-.55c-.145-.15-.42-.225-.822-.225h-.612v1.535z"/>
    </g>
</svg>
