<svg xmlns="http://www.w3.org/2000/svg" width="20" height="20" viewBox="0 0 20 20">
    <defs>
        <linearGradient id="a" x1="50%" x2="50%" y1="100%" y2="0%">
            <stop offset="0%" stop-color="#FEBE02"/>
            <stop offset="100%" stop-color="#FEEA0C"/>
        </linearGradient>
    </defs>
    <path fill="url(#a)" fill-rule="evenodd" d="M1.83 12.637l5.543 5.523L17.551 7.976 12.01 2.452 1.829 12.637zm17.337-10.23L17.584.827C16.49-.263 14.738-.278 13.668.793l-.553.552 5.542 5.525.553-.553c1.07-1.071 1.05-2.821-.043-3.91zM.017 19.058a.782.782 0 0 0 .927.925l4.994-1.042-4.888-4.87-1.034 4.987z"/>
</svg>
