<svg xmlns="http://www.w3.org/2000/svg" xmlns:xlink="http://www.w3.org/1999/xlink" width="36" height="36" viewBox="0 0 36 36">
    <defs>
        <linearGradient id="a" x1="50%" x2="50%" y1="0%" y2="94.166%">
            <stop offset="0%" stop-color="#EBB2E4"/>
            <stop offset="71.688%" stop-color="#CF70A7"/>
            <stop offset="100%" stop-color="#CF70A7"/>
        </linearGradient>
        <rect id="b" width="36" height="36" rx="5"/>
        <text id="d" fill="#FFF" font-family="NotoSansCJKtc-Medium, Noto Sans CJK TC" font-size="18" font-weight="400" letter-spacing="1.593">
            <tspan x="9" y="25">未</tspan>
        </text>
        <filter id="c" width="135%" height="125.9%" x="-17.5%" y="-9.3%" filterUnits="objectBoundingBox">
            <feOffset dy="1" in="SourceAlpha" result="shadowOffsetOuter1"/>
            <feGaussianBlur in="shadowOffsetOuter1" result="shadowBlurOuter1" stdDeviation="1"/>
            <feColorMatrix in="shadowBlurOuter1" values="0 0 0 0 0 0 0 0 0 0 0 0 0 0 0 0 0 0 0.5 0"/>
        </filter>
    </defs>
    <g fill="none" fill-rule="evenodd">
        <g>
            <use fill="url(#a)" xlink:href="#b"/>
            <rect width="35" height="35" x=".5" y=".5" stroke="#FFF" rx="5"/>
        </g>
        <g fill="#FFF">
            <use filter="url(#c)" xlink:href="#d"/>
            <use xlink:href="#d"/>
        </g>
    </g>
</svg>
