<svg xmlns="http://www.w3.org/2000/svg" xmlns:xlink="http://www.w3.org/1999/xlink" width="28" height="42" viewBox="0 0 28 42">
    <defs>
        <linearGradient id="a" x1="50%" x2="50%" y1="100%" y2="1.967%">
            <stop offset="0%" stop-color="#9099A3"/>
            <stop offset=".732%" stop-color="#8F98A2"/>
            <stop offset="26.587%" stop-color="#67727E"/>
            <stop offset="77.541%" stop-color="#BBC3C6"/>
            <stop offset="100%" stop-color="#A0A8AB"/>
        </linearGradient>
        <rect id="b" width="28" height="24.348" y="17.043" rx="3"/>
        <filter id="c" width="103.6%" height="104.1%" x="-1.8%" y="-2.1%" filterUnits="objectBoundingBox">
            <feOffset dy="-1" in="SourceAlpha" result="shadowOffsetInner1"/>
            <feComposite in="shadowOffsetInner1" in2="SourceAlpha" k2="-1" k3="1" operator="arithmetic" result="shadowInnerInner1"/>
            <feColorMatrix in="shadowInnerInner1" values="0 0 0 0 0 0 0 0 0 0 0 0 0 0 0 0 0 0 0.5 0"/>
        </filter>
        <path id="d" d="M12.174 28.807a4.261 4.261 0 1 1 3.652 0v5.28h-3.652v-5.28z"/>
        <filter id="e" width="146.9%" height="129.9%" x="-23.5%" y="-14.9%" filterUnits="objectBoundingBox">
            <feGaussianBlur in="SourceAlpha" result="shadowBlurInner1" stdDeviation="1.5"/>
            <feOffset dy="1" in="shadowBlurInner1" result="shadowOffsetInner1"/>
            <feComposite in="shadowOffsetInner1" in2="SourceAlpha" k2="-1" k3="1" operator="arithmetic" result="shadowInnerInner1"/>
            <feColorMatrix in="shadowInnerInner1" values="0 0 0 0 0 0 0 0 0 0 0 0 0 0 0 0 0 0 0.5 0"/>
        </filter>
        <linearGradient id="f" x1="50%" x2="50%" y1="100%" y2="1.967%">
            <stop offset="0%" stop-color="#67727E"/>
            <stop offset="77.541%" stop-color="#BBC3C6"/>
            <stop offset="100%" stop-color="#A0A8AB"/>
        </linearGradient>
        <path id="g" d="M7.913 17.043H4.261v-6.695C4.26 4.969 8.62.608 14 .608c5.379 0 9.74 4.361 9.74 9.74v6.695h-3.653v-6.695a6.087 6.087 0 1 0-12.174 0v6.695z"/>
        <filter id="h" width="105.1%" height="106.1%" x="-2.6%" y="-3%" filterUnits="objectBoundingBox">
            <feOffset dy="1" in="SourceAlpha" result="shadowOffsetInner1"/>
            <feComposite in="shadowOffsetInner1" in2="SourceAlpha" k2="-1" k3="1" operator="arithmetic" result="shadowInnerInner1"/>
            <feColorMatrix in="shadowInnerInner1" values="0 0 0 0 1 0 0 0 0 1 0 0 0 0 1 0 0 0 0.5 0"/>
        </filter>
    </defs>
    <g fill="none" fill-rule="evenodd">
        <g>
            <use fill="url(#a)" xlink:href="#b"/>
            <use fill="#000" filter="url(#c)" xlink:href="#b"/>
        </g>
        <g>
            <use fill="#424242" xlink:href="#d"/>
            <use fill="#000" filter="url(#e)" xlink:href="#d"/>
        </g>
        <g fill-rule="nonzero">
            <use fill="url(#f)" fill-rule="evenodd" xlink:href="#g"/>
            <use fill="#000" filter="url(#h)" xlink:href="#g"/>
        </g>
    </g>
</svg>
