<svg xmlns="http://www.w3.org/2000/svg" width="190" height="121" viewBox="0 0 190 121">
    <g fill="none" fill-rule="evenodd">
        <path fill="#F2F2F2" d="M0 0h190v121H0z" opacity=".1"/>
        <g opacity=".2" transform="translate(63 29)">
            <circle cx="32" cy="32" r="30" stroke="#D8D8D8" stroke-width="4"/>
            <path fill="#D8D8D8" d="M30 30V18h4v12h12v4H34v12h-4V34H18v-4h12z"/>
        </g>
    </g>
</svg>
